%YAML 1.1
%TAG !u! tag:unity3d.com,2011:
--- !u!74 &7400000
AnimationClip:
  m_ObjectHideFlags: 0
  m_CorrespondingSourceObject: {fileID: 0}
  m_PrefabInstance: {fileID: 0}
  m_PrefabAsset: {fileID: 0}
  m_Name: RunZombie2
  serializedVersion: 6
  m_Legacy: 0
  m_Compressed: 0
  m_UseHighQualityCurve: 1
  m_RotationCurves: []
  m_CompressedRotationCurves: []
  m_EulerCurves: []
  m_PositionCurves: []
  m_ScaleCurves: []
  m_FloatCurves: []
  m_PPtrCurves:
  - curve:
    - time: 0
      value: {fileID: 21300000, guid: c9ab4b6c855a8854cb033d96d10c57da, type: 3}
    - time: 0.083333336
      value: {fileID: 21300000, guid: 9e29a0754f9f95e488be4ed003e47b2f, type: 3}
    - time: 0.16666667
      value: {fileID: 21300000, guid: dab0f38437828a7419134385b4813a92, type: 3}
    - time: 0.25
      value: {fileID: 21300000, guid: b9cfd46d50b71fd4b996f06ec8c3383d, type: 3}
    - time: 0.33333334
      value: {fileID: 21300000, guid: f52b5cc02da25324cab171504eb7f7da, type: 3}
    - time: 0.41666666
      value: {fileID: 21300000, guid: 02f15e766b34f1e46963aae49feee7a0, type: 3}
    - time: 0.5
      value: {fileID: 21300000, guid: 5a3a8a1f36ae56f4ca6cde9736e530a8, type: 3}
    - time: 0.5833333
      value: {fileID: 21300000, guid: 8e12f6650447193458cd336173c16863, type: 3}
    - time: 0.6666667
      value: {fileID: 21300000, guid: 4dfea72864d7b33488cc707de36beee0, type: 3}
    - time: 0.75
      value: {fileID: 21300000, guid: 7d9193d96cfe55840b1d2297df34ed1e, type: 3}
    attribute: m_Sprite
    path: 
    classID: 212
    script: {fileID: 0}
  m_SampleRate: 12
  m_WrapMode: 0
  m_Bounds:
    m_Center: {x: 0, y: 0, z: 0}
    m_Extent: {x: 0, y: 0, z: 0}
  m_ClipBindingConstant:
    genericBindings:
    - serializedVersion: 2
      path: 0
      attribute: 0
      script: {fileID: 0}
      typeID: 212
      customType: 23
      isPPtrCurve: 1
    pptrCurveMapping:
    - {fileID: 21300000, guid: c9ab4b6c855a8854cb033d96d10c57da, type: 3}
    - {fileID: 21300000, guid: 9e29a0754f9f95e488be4ed003e47b2f, type: 3}
    - {fileID: 21300000, guid: dab0f38437828a7419134385b4813a92, type: 3}
    - {fileID: 21300000, guid: b9cfd46d50b71fd4b996f06ec8c3383d, type: 3}
    - {fileID: 21300000, guid: f52b5cc02da25324cab171504eb7f7da, type: 3}
    - {fileID: 21300000, guid: 02f15e766b34f1e46963aae49feee7a0, type: 3}
    - {fileID: 21300000, guid: 5a3a8a1f36ae56f4ca6cde9736e530a8, type: 3}
    - {fileID: 21300000, guid: 8e12f6650447193458cd336173c16863, type: 3}
    - {fileID: 21300000, guid: 4dfea72864d7b33488cc707de36beee0, type: 3}
    - {fileID: 21300000, guid: 7d9193d96cfe55840b1d2297df34ed1e, type: 3}
  m_AnimationClipSettings:
    serializedVersion: 2
    m_AdditiveReferencePoseClip: {fileID: 0}
    m_AdditiveReferencePoseTime: 0
    m_StartTime: 0
    m_StopTime: 0.8333333
    m_OrientationOffsetY: 0
    m_Level: 0
    m_CycleOffset: 0
    m_HasAdditiveReferencePose: 0
    m_LoopTime: 1
    m_LoopBlend: 0
    m_LoopBlendOrientation: 0
    m_LoopBlendPositionY: 0
    m_LoopBlendPositionXZ: 0
    m_KeepOriginalOrientation: 0
    m_KeepOriginalPositionY: 1
    m_KeepOriginalPositionXZ: 0
    m_HeightFromFeet: 0
    m_Mirror: 0
  m_EditorCurves: []
  m_EulerEditorCurves: []
  m_HasGenericRootTransform: 0
  m_HasMotionFloatCurves: 0
  m_Events: []
