%YAML 1.1
%TAG !u! tag:unity3d.com,2011:
--- !u!74 &7400000
AnimationClip:
  m_ObjectHideFlags: 0
  m_CorrespondingSourceObject: {fileID: 0}
  m_PrefabInstance: {fileID: 0}
  m_PrefabAsset: {fileID: 0}
  m_Name: Jump
  serializedVersion: 6
  m_Legacy: 0
  m_Compressed: 0
  m_UseHighQualityCurve: 1
  m_RotationCurves: []
  m_CompressedRotationCurves: []
  m_EulerCurves: []
  m_PositionCurves: []
  m_ScaleCurves: []
  m_FloatCurves: []
  m_PPtrCurves:
  - curve:
    - time: 0
      value: {fileID: 21300000, guid: 9748ed87d5e991948ba65095a953ff3e, type: 3}
    - time: 0.083333336
      value: {fileID: 21300000, guid: 997ef6a4e5e199a448907f6199a52520, type: 3}
    - time: 0.16666667
      value: {fileID: 21300000, guid: b48c32cf1a76ce34cb06dbcaacbc278a, type: 3}
    - time: 0.25
      value: {fileID: 21300000, guid: 7d510a7d85b827c4fa85ec28d6ba01ca, type: 3}
    - time: 0.33333334
      value: {fileID: 21300000, guid: f1bfa748c725c3c409b480cdea993570, type: 3}
    - time: 0.41666666
      value: {fileID: 21300000, guid: 6aedd1b080eb8e0488def1f7420b53a0, type: 3}
    - time: 0.5
      value: {fileID: 21300000, guid: 9204003f0dda4fe49b370323cb7cfc3c, type: 3}
    - time: 0.5833333
      value: {fileID: 21300000, guid: b7596f7e7e44b9243b814bd27270362e, type: 3}
    - time: 0.6666667
      value: {fileID: 21300000, guid: 4ee20fe1a55643646b4edf6f8f11d884, type: 3}
    - time: 0.75
      value: {fileID: 21300000, guid: d89da8ee725d1fc43929ca98083d8acf, type: 3}
    attribute: m_Sprite
    path: 
    classID: 212
    script: {fileID: 0}
  m_SampleRate: 12
  m_WrapMode: 0
  m_Bounds:
    m_Center: {x: 0, y: 0, z: 0}
    m_Extent: {x: 0, y: 0, z: 0}
  m_ClipBindingConstant:
    genericBindings:
    - serializedVersion: 2
      path: 0
      attribute: 0
      script: {fileID: 0}
      typeID: 212
      customType: 23
      isPPtrCurve: 1
    pptrCurveMapping:
    - {fileID: 21300000, guid: 9748ed87d5e991948ba65095a953ff3e, type: 3}
    - {fileID: 21300000, guid: 997ef6a4e5e199a448907f6199a52520, type: 3}
    - {fileID: 21300000, guid: b48c32cf1a76ce34cb06dbcaacbc278a, type: 3}
    - {fileID: 21300000, guid: 7d510a7d85b827c4fa85ec28d6ba01ca, type: 3}
    - {fileID: 21300000, guid: f1bfa748c725c3c409b480cdea993570, type: 3}
    - {fileID: 21300000, guid: 6aedd1b080eb8e0488def1f7420b53a0, type: 3}
    - {fileID: 21300000, guid: 9204003f0dda4fe49b370323cb7cfc3c, type: 3}
    - {fileID: 21300000, guid: b7596f7e7e44b9243b814bd27270362e, type: 3}
    - {fileID: 21300000, guid: 4ee20fe1a55643646b4edf6f8f11d884, type: 3}
    - {fileID: 21300000, guid: d89da8ee725d1fc43929ca98083d8acf, type: 3}
  m_AnimationClipSettings:
    serializedVersion: 2
    m_AdditiveReferencePoseClip: {fileID: 0}
    m_AdditiveReferencePoseTime: 0
    m_StartTime: 0
    m_StopTime: 0.8333333
    m_OrientationOffsetY: 0
    m_Level: 0
    m_CycleOffset: 0
    m_HasAdditiveReferencePose: 0
    m_LoopTime: 0
    m_LoopBlend: 0
    m_LoopBlendOrientation: 0
    m_LoopBlendPositionY: 0
    m_LoopBlendPositionXZ: 0
    m_KeepOriginalOrientation: 0
    m_KeepOriginalPositionY: 1
    m_KeepOriginalPositionXZ: 0
    m_HeightFromFeet: 0
    m_Mirror: 0
  m_EditorCurves: []
  m_EulerEditorCurves: []
  m_HasGenericRootTransform: 0
  m_HasMotionFloatCurves: 0
  m_Events: []
