%YAML 1.1
%TAG !u! tag:unity3d.com,2011:
--- !u!74 &7400000
AnimationClip:
  m_ObjectHideFlags: 0
  m_CorrespondingSourceObject: {fileID: 0}
  m_PrefabInstance: {fileID: 0}
  m_PrefabAsset: {fileID: 0}
  m_Name: Walk_Run
  serializedVersion: 6
  m_Legacy: 0
  m_Compressed: 0
  m_UseHighQualityCurve: 1
  m_RotationCurves: []
  m_CompressedRotationCurves: []
  m_EulerCurves: []
  m_PositionCurves: []
  m_ScaleCurves: []
  m_FloatCurves: []
  m_PPtrCurves:
  - curve:
    - time: 0
      value: {fileID: 21300000, guid: 7e283a395f396d744a09a402abbd8ec5, type: 3}
    - time: 0.083333336
      value: {fileID: 21300000, guid: 009a494748e1bbd4ebb1ba9fbcee29a3, type: 3}
    - time: 0.16666667
      value: {fileID: 21300000, guid: d693e7f435ca51a4a96fb8b03e118c07, type: 3}
    - time: 0.25
      value: {fileID: 21300000, guid: 224959997bc2d2a4da7f54e5f05a9193, type: 3}
    - time: 0.33333334
      value: {fileID: 21300000, guid: b0e40a32181bb8949a889fe3d7fbba1e, type: 3}
    - time: 0.41666666
      value: {fileID: 21300000, guid: 7a04678b83470ca4ca83e633b95f1b2f, type: 3}
    - time: 0.5
      value: {fileID: 21300000, guid: 6c98761d93c37fa42aa60d59f9361c96, type: 3}
    - time: 0.5833333
      value: {fileID: 21300000, guid: 0bb23ee9cfad29f4581bcad145003c13, type: 3}
    attribute: m_Sprite
    path: 
    classID: 212
    script: {fileID: 0}
  m_SampleRate: 12
  m_WrapMode: 0
  m_Bounds:
    m_Center: {x: 0, y: 0, z: 0}
    m_Extent: {x: 0, y: 0, z: 0}
  m_ClipBindingConstant:
    genericBindings:
    - serializedVersion: 2
      path: 0
      attribute: 0
      script: {fileID: 0}
      typeID: 212
      customType: 23
      isPPtrCurve: 1
    pptrCurveMapping:
    - {fileID: 21300000, guid: 7e283a395f396d744a09a402abbd8ec5, type: 3}
    - {fileID: 21300000, guid: 009a494748e1bbd4ebb1ba9fbcee29a3, type: 3}
    - {fileID: 21300000, guid: d693e7f435ca51a4a96fb8b03e118c07, type: 3}
    - {fileID: 21300000, guid: 224959997bc2d2a4da7f54e5f05a9193, type: 3}
    - {fileID: 21300000, guid: b0e40a32181bb8949a889fe3d7fbba1e, type: 3}
    - {fileID: 21300000, guid: 7a04678b83470ca4ca83e633b95f1b2f, type: 3}
    - {fileID: 21300000, guid: 6c98761d93c37fa42aa60d59f9361c96, type: 3}
    - {fileID: 21300000, guid: 0bb23ee9cfad29f4581bcad145003c13, type: 3}
  m_AnimationClipSettings:
    serializedVersion: 2
    m_AdditiveReferencePoseClip: {fileID: 0}
    m_AdditiveReferencePoseTime: 0
    m_StartTime: 0
    m_StopTime: 0.6666666
    m_OrientationOffsetY: 0
    m_Level: 0
    m_CycleOffset: 0
    m_HasAdditiveReferencePose: 0
    m_LoopTime: 1
    m_LoopBlend: 0
    m_LoopBlendOrientation: 0
    m_LoopBlendPositionY: 0
    m_LoopBlendPositionXZ: 0
    m_KeepOriginalOrientation: 0
    m_KeepOriginalPositionY: 1
    m_KeepOriginalPositionXZ: 0
    m_HeightFromFeet: 0
    m_Mirror: 0
  m_EditorCurves: []
  m_EulerEditorCurves: []
  m_HasGenericRootTransform: 0
  m_HasMotionFloatCurves: 0
  m_Events: []
